\relax 
\newlabel{eq:IP}{{1}{1}}
\@writefile{lof}{\contentsline {figure}{\numberline {1}{\ignorespaces The Dome scenario for $h_k$=\texttt  {CellSize} $s=0$ and $\gamma = 10^{-14}$.\relax }}{3}}
\providecommand*\caption@xref[2]{\@setref\relax\@undefined{#1}}
\newlabel{fig:dome_s0}{{1}{3}}
\@writefile{lof}{\contentsline {figure}{\numberline {2}{\ignorespaces The Dome scenario for $h_k$=\texttt  {CellSize} $s=1 \text  { or } s=2$ and $\gamma = 10^{-14}$.\relax }}{3}}
\newlabel{fig:dome_s1}{{2}{3}}
\@writefile{lof}{\contentsline {figure}{\numberline {3}{\ignorespaces The Dome scenario for the unstructured mesh, $h_k$=\texttt  {CellSize} $s=0 \text  { or } s=1$ and $\gamma = 10^{-14}$.\relax }}{3}}
\newlabel{fig:dome_unstruct}{{3}{3}}
